Introduction to Data Analysis with R (IDAR) - 9 Selecting and renaming columns
…
# A tibble: 5 × 1
    age
  <dbl>
1    45
2    55
3    23
4    20
5    55

To select multiple variables, we separate them with commas:

yaounde %>% select(age, sex, igg_result)

# A tibble: 971 × 3
     age sex    igg_result
   <dbl> <chr>  <chr>     
 1    45 Female Negative  
 2    55 Male   Positive  
 3    23 Male   Negative  
 4    20 Female Positive  
 5    55 Female Positive  
 6    17 Female Negative  
 7    13 Female Positive  
 8    28 Male   Negative  
 9    30 Male   Negative  
10    13 Female Positive  
# ℹ 961 more rows
…
