Introduction to Data Analysis with R - 13 Grouping and summarizing data
…
In this lesson, we will again use data from the COVID-19 serological survey conducted in Yaounde, Cameroon.

yaounde <- read_csv(here::here('data/yaounde_data.csv'))

## A smaller subset of variables
yao <- yaounde %>% select(
  age, age_category_3, sex, weight_kg, height_cm,
  neighborhood, is_smoker, is_pregnant, occupation,
  treatment_combinations, symptoms, n_days_miss_work, n_bedridden_days,
  highest_education, igg_result)

yao

# A tibble: 971 × 15
     age age_category_3 sex    weight_kg height_cm neighborhood is_smoker 
   <dbl> <chr>          <chr>      <dbl>     <dbl> <chr>        <chr>     
 1    45 Adult          Female        95       169 Briqueterie  Non-smoker
 2    55 Adult          Male          96       185 Briqueterie  Ex-smoker 
 3    23 Adult          Male          74       180 Briqueterie  Smoker    
 4    20 Adult          Female        70       164 Briqueterie  Non-smoker
 5    55 Adult          Female        67       147 Briqueterie  Non-smoker
 6    17 Child          Female        65       162 Briqueterie  Non-smoker
 7    13 Child          Female        65       150 Briqueterie  Non-smoker
 8    28 Adult          Male          62       173 Briqueterie  Non-smoker
 9    30 Adult          Male          73       170 Briqueterie  Non-smoker
10    13 Child          Female        56       153 Briqueterie  Non-smoker
# ℹ 961 more rows
# ℹ 8 more variables: is_pregnant <chr>, occupation <chr>,
#   treatment_combinations <chr>, symptoms <chr>, n_days_miss_work <dbl>,
#   n_bedridden_days <dbl>, highest_education <chr>, igg_result <chr>
…
.CHECK_Q_height_summary()
.HINT_Q_height_summary()

13.6 Grouped summaries with dplyr::group_by()

As its name suggests, dplyr::group_by() lets you group a data frame by the values in a variable (e.g. male vs female sex). You can then perform operations that are split according to these groups.

What effect does group_by() have on a data frame? Let’s try to group the yao data frame by sex and observe the effect:

yao %>% 
  group_by(sex)

# A tibble: 971 × 15
# Groups:   sex [2]
     age age_category_3 sex    weight_kg height_cm neighborhood is_smoker 
   <dbl> <chr>          <chr>      <dbl>     <dbl> <chr>        <chr>     
 1    45 Adult          Female        95       169 Briqueterie  Non-smoker
 2    55 Adult          Male          96       185 Briqueterie  Ex-smoker 
 3    23 Adult          Male          74       180 Briqueterie  Smoker    
 4    20 Adult          Female        70       164 Briqueterie  Non-smoker
 5    55 Adult          Female        67       147 Briqueterie  Non-smoker
 6    17 Child          Female        65       162 Briqueterie  Non-smoker
 7    13 Child          Female        65       150 Briqueterie  Non-smoker
 8    28 Adult          Male          62       173 Briqueterie  Non-smoker
 9    30 Adult          Male          73       170 Briqueterie  Non-smoker
10    13 Child          Female        56       153 Briqueterie  Non-smoker
# ℹ 961 more rows
# ℹ 8 more variables: is_pregnant <chr>, occupation <chr>,
#   treatment_combinations <chr>, symptoms <chr>, n_days_miss_work <dbl>,
#   n_bedridden_days <dbl>, highest_education <chr>, igg_result <chr>
…
Great! With just a few code lines you are able to extract quite a lot of information.

Let’s see one more example for good measure. The variable n_days_miss_work tells us the number of days that respondents missed work due to COVID-like symptoms. Individuals who reported no COVID-like symptoms have an NA for this variable:

yao %>% 
  select(n_days_miss_work)

# A tibble: 971 × 1
   n_days_miss_work
              <dbl>
 1                0
 2               NA
 3               NA
 4                7
 5               NA
 6                7
 7                0
 8                0
 9                0
10               NA
# ℹ 961 more rows
…
Why are you able to use sum() which is meant to add numbers, on a condition like highest_education == "Doctorate"?

Using sum() on a condition works because the condition evaluates to the Boolean values TRUE and FALSE. And these Boolean values are treated as numbers (where TRUE equals 1 and FALSE equals 0), and numbers can, of course, be summed.

The code below demonstrates what is going on under the hood in a step-by-step way. Run through it and see if you can follow.

demo_of_condition_sums <- yao %>% 
  select(highest_education) %>% 
  mutate(with_doctorate = highest_education == "Doctorate") %>% 
  mutate(numeric_with_doctorate = as.numeric(with_doctorate))

demo_of_condition_sums

# A tibble: 971 × 3
   highest_education with_doctorate numeric_with_doctorate
   <chr>             <lgl>                           <dbl>
 1 Secondary         FALSE                               0
 2 University        FALSE                               0
 3 University        FALSE                               0
 4 Secondary         FALSE                               0
 5 Primary           FALSE                               0
 6 Secondary         FALSE                               0
 7 Secondary         FALSE                               0
 8 Doctorate         TRUE                                1
 9 Secondary         FALSE                               0
10 Secondary         FALSE                               0
# ℹ 961 more rows
…
demo_of_condition_sums %>% 
  summarize(count_with_doctorate = sum(numeric_with_doctorate))

# A tibble: 1 × 1
  count_with_doctorate
                 <dbl>
1                   17

For a final illustration of counting with conditions, consider the treatment_combinations variable, which lists the treatments received by people with COVID-like symptoms. People who received no treatments have an NA value:

yao %>% 
  select(treatment_combinations)

# A tibble: 971 × 1
   treatment_combinations        
   <chr>                         
 1 Paracetamol                   
 2 <NA>                          
 3 <NA>                          
 4 Antibiotics                   
 5 <NA>                          
 6 Paracetamol--Antibiotics      
 7 Traditional meds.             
 8 Paracetamol                   
 9 Paracetamol--Traditional meds.
10 <NA>                          
# ℹ 961 more rows
…
PLEASE SKIP THE PRACTICE QUESTION ON CHECKING SYMPTOMS FOR ADULTS. WE DECIDED TO REMOVE IT.

13.9.2 dplyr::count()

The dplyr::count() function wraps a bunch of things into one beautiful friendly line of code to help you find counts of observations by group.

Let’s use dplyr::count() on our occupation variable:

yao %>%
  count(occupation)

# A tibble: 28 × 2
   occupation                              n
   <chr>                               <int>
 1 Farmer                                  5
 2 Farmer--Other                           1
 3 Home-maker                             65
 4 Home-maker--Farmer                      2
 5 Home-maker--Informal worker             3
 6 Home-maker--Informal worker--Farmer     1
 7 Home-maker--Trader                      3
 8 Informal worker                       189
 9 Informal worker--Other                  2
10 Informal worker--Trader                 4
# ℹ 18 more rows

Note that this is the same output as:

yao %>%
  group_by(occupation) %>% 
  summarize(n = n())

# A tibble: 28 × 2
   occupation                              n
   <chr>                               <int>
 1 Farmer                                  5
 2 Farmer--Other                           1
 3 Home-maker                             65
 4 Home-maker--Farmer                      2
 5 Home-maker--Informal worker             3
 6 Home-maker--Informal worker--Farmer     1
 7 Home-maker--Trader                      3
 8 Informal worker                       189
 9 Informal worker--Other                  2
10 Informal worker--Trader                 4
# ℹ 18 more rows

You can also apply dplyr::count() in a nested fashion:

yao %>%
  count(sex, occupation)

# A tibble: 40 × 3
   sex    occupation                              n
   <chr>  <chr>                               <int>
 1 Female Farmer                                  3
 2 Female Home-maker                             65
 3 Female Home-maker--Farmer                      2
 4 Female Home-maker--Informal worker             3
 5 Female Home-maker--Informal worker--Farmer     1
 6 Female Home-maker--Trader                      3
 7 Female Informal worker                        77
 8 Female Informal worker--Trader                 1
 9 Female No response                             8
10 Female Other                                   6
# ℹ 30 more rows
…
